<svg xmlns="http://www.w3.org/2000/svg" width="288.76533" height="476.62311" viewBox="0 0 288.76533 476.62311">
  <title>Ресурс 2</title>
  <g id="9e40de5e-cdd7-4b9a-8aa8-7a60562f7d9e" data-name="Слой 2">
    <g id="79c5977a-316e-4f6a-a461-bb7464bb7b5e" data-name="Design">
      <circle cx="50.75" cy="50.75" r="50" fill="none" stroke="#fff" stroke-linecap="round" stroke-linejoin="round" stroke-width="1.5"/>
      <circle cx="50.75" cy="225.8427" r="50" fill="none" stroke="#fff" stroke-linecap="round" stroke-linejoin="round" stroke-width="1.5"/>
      <line x1="288.01533" y1="50.75" x2="128.01533" y2="50.75" fill="none" stroke="#fff" stroke-linecap="round" stroke-linejoin="round" stroke-width="1.5"/>
      <g>
        <path d="M9.20091,118.64411H12.821c1.35352,0,2.332.64893,2.332,1.92529a1.59987,1.59987,0,0,1-.96777,1.5293,2.02278,2.02278,0,0,1,1.5625,2.05713c0,1.29834-1.03418,2.18945-2.67383,2.18945h-3.873Zm3.36719,3.01465c.66016,0,1.05566-.30811,1.05566-.83643,0-.5498-.39551-.85791-1.05566-.85791H10.78587v1.69434Zm.209,3.32227c.76953,0,1.25391-.35205,1.25391-1.001,0-.64941-.48437-1.01221-1.25391-1.01221H10.78587V124.981Z" fill="#fff"/>
        <path d="M17.198,122.4947a3.95185,3.95185,0,0,1,4.16992-4.00439,4.24844,4.24844,0,0,1,2.03516.48389v1.59521a3.4232,3.4232,0,0,0-2.02441-.59424,2.52089,2.52089,0,1,0,.06641,5.03906,3.29843,3.29843,0,0,0,2.1123-.67139v1.59521a4.3183,4.3183,0,0,1-2.18945.561A3.96454,3.96454,0,0,1,17.198,122.4947Z" fill="#fff"/>
        <path d="M25.45872,118.64411H31.114v1.41943H27.04368v1.48486H30.322v1.39746H27.04368v1.98h4.19141v1.41943H25.45872Z" fill="#fff"/>
        <path d="M33.04857,118.64411h5.55664v1.41943H34.63353v6.28174h-1.585Z" fill="#fff"/>
        <path d="M38.96751,124.92585h.75879c.68262-1.05615,1.0127-2.45312,1.0127-5.06055v-1.22119H46.1511v6.28174h1.05664v2.99268H45.72239v-1.57324H40.45286v1.57324H38.96751Zm5.59961,0v-4.8623H42.31224a10.98038,10.98038,0,0,1-.83691,4.8623Z" fill="#fff"/>
        <path d="M51.54075,118.60016h1.51855l3.2998,7.74512H54.6765l-.75977-1.78223H50.66087l-.75977,1.78223H48.24Zm1.87012,4.65381-1.12207-2.67334L51.156,123.254Z" fill="#fff"/>
        <path d="M61.03294,122.4947a3.95185,3.95185,0,0,1,4.16992-4.00439,4.24844,4.24844,0,0,1,2.03516.48389v1.59521a3.4232,3.4232,0,0,0-2.02441-.59424,2.52089,2.52089,0,1,0,.06641,5.03906,3.29843,3.29843,0,0,0,2.1123-.67139v1.59521a4.3183,4.3183,0,0,1-2.18945.561A3.96454,3.96454,0,0,1,61.03294,122.4947Z" fill="#fff"/>
        <path d="M69.22825,126.27936V124.8819a2.044,2.044,0,0,0,.89063.209c.62793,0,.94629-.209,1.36426-1.06689l-2.915-5.37988h1.749l1.94727,3.78467,1.70508-3.78467h1.68359l-2.83887,6.02881a2.64039,2.64039,0,0,1-2.41992,1.82617A2.69535,2.69535,0,0,1,69.22825,126.27936Z" fill="#fff"/>
        <path d="M80.1179,120.94343l1.63965-2.29932h1.82617l-2.541,3.54248,2.99219,4.15869H82.18626l-2.08984-2.87158-2.0791,2.87158H76.19114l3.00293-4.14746-2.541-3.55371h1.84766Z" fill="#fff"/>
        <path d="M84.70482,122.4947a3.99367,3.99367,0,1,1,3.99414,4.00439A3.92756,3.92756,0,0,1,84.70482,122.4947Zm6.37012,0a2.38053,2.38053,0,1,0-2.376,2.51953A2.389,2.389,0,0,0,91.07493,122.4947Z" fill="#fff"/>
      </g>
      <g>
        <circle cx="50.75" cy="51.06308" r="14.70905" fill="none" stroke="#fff" stroke-linecap="round" stroke-linejoin="round" stroke-width="1.5"/>
        <line x1="50.75" y1="31.13793" x2="50.75" y2="18.25" fill="none" stroke="#fff" stroke-linecap="round" stroke-linejoin="round" stroke-width="1.5"/>
        <line x1="50.75" y1="83.25" x2="50.75" y2="70.36207" fill="none" stroke="#fff" stroke-linecap="round" stroke-linejoin="round" stroke-width="1.5"/>
        <line x1="31.13793" y1="50.75" x2="18.25" y2="50.75" fill="none" stroke="#fff" stroke-linecap="round" stroke-linejoin="round" stroke-width="1.5"/>
        <line x1="83.25" y1="50.75" x2="70.36207" y2="50.75" fill="none" stroke="#fff" stroke-linecap="round" stroke-linejoin="round" stroke-width="1.5"/>
        <line x1="58.09681" y1="68.93399" x2="60.6934" y2="75.36078" fill="none" stroke="#fff" stroke-linecap="round" stroke-linejoin="round" stroke-width="1.5"/>
        <line x1="40.8066" y1="26.13922" x2="43.40319" y2="32.56601" fill="none" stroke="#fff" stroke-linecap="round" stroke-linejoin="round" stroke-width="1.5"/>
        <line x1="68.803" y1="58.41305" x2="75.18349" y2="61.1214" fill="none" stroke="#fff" stroke-linecap="round" stroke-linejoin="round" stroke-width="1.5"/>
        <line x1="26.31651" y1="40.3786" x2="32.697" y2="43.08695" fill="none" stroke="#fff" stroke-linecap="round" stroke-linejoin="round" stroke-width="1.5"/>
        <line x1="68.93399" y1="43.40319" x2="75.36078" y2="40.8066" fill="none" stroke="#fff" stroke-linecap="round" stroke-linejoin="round" stroke-width="1.5"/>
        <line x1="26.13922" y1="60.6934" x2="32.56601" y2="58.09681" fill="none" stroke="#fff" stroke-linecap="round" stroke-linejoin="round" stroke-width="1.5"/>
        <line x1="43.40319" y1="68.93399" x2="40.8066" y2="75.36078" fill="none" stroke="#fff" stroke-linecap="round" stroke-linejoin="round" stroke-width="1.5"/>
        <line x1="60.6934" y1="26.13922" x2="58.09681" y2="32.56601" fill="none" stroke="#fff" stroke-linecap="round" stroke-linejoin="round" stroke-width="1.5"/>
        <line x1="36.88217" y1="36.88217" x2="27.76903" y2="27.76903" fill="none" stroke="#fff" stroke-linecap="round" stroke-linejoin="round" stroke-width="1.5"/>
        <line x1="73.73097" y1="73.73097" x2="64.61783" y2="64.61783" fill="none" stroke="#fff" stroke-linecap="round" stroke-linejoin="round" stroke-width="1.5"/>
        <line x1="36.88217" y1="64.61783" x2="27.76903" y2="73.73097" fill="none" stroke="#fff" stroke-linecap="round" stroke-linejoin="round" stroke-width="1.5"/>
        <line x1="73.73097" y1="27.76903" x2="64.61783" y2="36.88217" fill="none" stroke="#fff" stroke-linecap="round" stroke-linejoin="round" stroke-width="1.5"/>
      </g>
      <line x1="288.01533" y1="225.8427" x2="128.01533" y2="225.8427" fill="none" stroke="#fff" stroke-linecap="round" stroke-linejoin="round" stroke-width="1.5"/>
      <g>
        <path d="M6.4431,293.81452h3.62012c1.35352,0,2.332.64893,2.332,1.92529a1.59987,1.59987,0,0,1-.96777,1.5293,2.02278,2.02278,0,0,1,1.5625,2.05713c0,1.29834-1.03418,2.18945-2.67383,2.18945H6.4431Zm3.36719,3.01465c.66016,0,1.05566-.30811,1.05566-.83643,0-.5498-.39551-.85791-1.05566-.85791H8.02806v1.69434Zm.209,3.32227c.76953,0,1.25391-.35205,1.25391-1.001,0-.64941-.48437-1.01221-1.25391-1.01221H8.02806v2.01318Z" fill="#fff"/>
        <path d="M14.86888,293.81452h1.585v2.5415h1.42969c1.87012,0,2.98145,1.08887,2.98145,2.58545,0,1.49609-1.11133,2.57422-2.98145,2.57422H14.86888Zm2.92676,6.3042c.91309,0,1.47461-.4292,1.47461-1.19922,0-.78125-.56152-1.22119-1.47461-1.22119h-1.3418v2.42041Zm3.99414-6.3042h1.584v7.70117h-1.584Z" fill="#fff"/>
        <path d="M25.62669,293.81452h3.62012c1.35352,0,2.332.64893,2.332,1.92529a1.59987,1.59987,0,0,1-.96777,1.5293,2.02278,2.02278,0,0,1,1.5625,2.05713c0,1.29834-1.03418,2.18945-2.67383,2.18945h-3.873Zm3.36719,3.01465c.66016,0,1.05566-.30811,1.05566-.83643,0-.5498-.39551-.85791-1.05566-.85791H27.21165v1.69434Zm.209,3.32227c.76953,0,1.25391-.35205,1.25391-1.001,0-.64941-.48437-1.01221-1.25391-1.01221H27.21165v2.01318Z" fill="#fff"/>
        <path d="M33.62376,297.66511a3.99367,3.99367,0,1,1,3.99316,4.00439A3.92733,3.92733,0,0,1,33.62376,297.66511Zm6.37012,0a2.38053,2.38053,0,1,0-2.377,2.51953A2.38919,2.38919,0,0,0,39.99388,297.66511Z" fill="#fff"/>
        <path d="M42.55638,300.09626h.75879c.68262-1.05615,1.0127-2.45312,1.0127-5.06055v-1.22119H49.74v6.28174h1.05664v2.99268H49.31126v-1.57324H44.04173v1.57324H42.55638Zm5.59961,0V295.234H45.9011a10.98038,10.98038,0,0,1-.83691,4.8623Z" fill="#fff"/>
        <path d="M52.49974,293.81452h1.585v5.0166l3.72949-5.0166h1.36426v7.70117H57.60521v-5.0498l-3.77344,5.0498h-1.332Z" fill="#fff"/>
        <path d="M67.37278,293.81452V295.234H64.9304v6.28174h-1.584V295.234H60.91478v-1.41943Z" fill="#fff"/>
        <path d="M71.91478,293.81452H78.362v7.70117H76.7888V295.234H73.49974v6.28174h-1.585Z" fill="#fff"/>
        <path d="M80.35228,297.66511a3.99367,3.99367,0,1,1,3.99316,4.00439A3.92733,3.92733,0,0,1,80.35228,297.66511Zm6.37012,0a2.38053,2.38053,0,1,0-2.377,2.51953A2.38919,2.38919,0,0,0,86.72239,297.66511Z" fill="#fff"/>
        <path d="M95.68724,293.81452V295.234H93.24485v6.28174h-1.584V295.234H89.22923v-1.41943Z" fill="#fff"/>
      </g>
      <line x1="288.01533" y1="400.9354" x2="128.01533" y2="400.9354" fill="none" stroke="#fff" stroke-linecap="round" stroke-linejoin="round" stroke-width="1.5"/>
      <g>
        <path d="M13.24095,476.07331v-1.57324a3.1752,3.1752,0,0,0,2.168.66016,2.43431,2.43431,0,0,0,2.41992-1.99121H14.82493v-1.33154h2.92676a2.34315,2.34315,0,0,0-2.31055-1.76025,3.6629,3.6629,0,0,0-2.05664.5835v-1.55127a4.31063,4.31063,0,0,1,2.03516-.49512,4.00651,4.00651,0,1,1-.02246,8.00879A4.30163,4.30163,0,0,1,13.24095,476.07331Z" fill="#fff"/>
        <path d="M20.53392,474.97321a1.54033,1.54033,0,0,0,.56055.08789c.86914,0,1.0459-1.03418,1.08984-4.0376l.03223-2.25537h5.43555v7.70117H26.07884v-6.28174h-2.333l-.04395,1.562c-.09863,3.57568-.69238,4.75293-2.51855,4.75293a1.78093,1.78093,0,0,1-.64941-.09912Z" fill="#fff"/>
        <path d="M32.53587,468.72419h1.51855l3.2998,7.74512H35.67161l-.75977-1.78223H31.656l-.75977,1.78223H29.23509ZM34.406,473.378l-1.12207-2.67334L32.1511,473.378Z" fill="#fff"/>
        <path d="M38.112,472.61872a3.95185,3.95185,0,0,1,4.16992-4.00439,4.24844,4.24844,0,0,1,2.03516.48389v1.59521a3.42319,3.42319,0,0,0-2.02441-.59424,2.52089,2.52089,0,1,0,.06641,5.03906,3.29843,3.29843,0,0,0,2.1123-.67139v1.59521a4.3183,4.3183,0,0,1-2.18945.561A3.96454,3.96454,0,0,1,38.112,472.61872Z" fill="#fff"/>
        <path d="M52.31419,468.76813v1.41943H49.87181v6.28174h-1.584v-6.28174H45.85618v-1.41943Z" fill="#fff"/>
        <path d="M54.03978,468.76813h1.585v5.0166l3.72949-5.0166h1.36426v7.70117H59.14525v-5.0498l-3.77344,5.0498h-1.332Z" fill="#fff"/>
        <path d="M67.30638,473.46589a5.6487,5.6487,0,0,1-1.73828.2749c-1.793,0-2.84961-.8252-2.84961-2.5083v-2.46436h1.585v2.2002c0,1.00146.53906,1.30957,1.47363,1.30957a3.469,3.469,0,0,0,1.5293-.33008v-3.17969h1.57324v7.70117H67.30638Z" fill="#fff"/>
        <path d="M71.13353,468.76813h1.585v2.88232H76.195v-2.88232h1.57324v7.70117H76.195v-3.37744H72.71849v3.37744h-1.585Z" fill="#fff"/>
        <path d="M79.75755,472.61872a3.99367,3.99367,0,1,1,3.99414,4.00439A3.92756,3.92756,0,0,1,79.75755,472.61872Zm6.37012,0a2.38053,2.38053,0,1,0-2.376,2.51953A2.389,2.389,0,0,0,86.12767,472.61872Z" fill="#fff"/>
      </g>
      <path d="M34.83247,249.27171a2.5,2.5,0,0,1-5,0c0-1.6875,2.5-7.5,2.5-7.5S34.83247,247.56338,34.83247,249.27171Z" fill="none" stroke="#fff" stroke-linecap="round" stroke-linejoin="round" stroke-width="1.5"/>
      <path d="M52.634,249.27171a2.5,2.5,0,0,1-5,0c0-1.6875,2.5-7.5,2.5-7.5S52.634,247.56338,52.634,249.27171Z" fill="none" stroke="#fff" stroke-linecap="round" stroke-linejoin="round" stroke-width="1.5"/>
      <path d="M69.30176,249.27171a2.5,2.5,0,0,1-5,0c0-1.6875,2.5-7.5,2.5-7.5S69.30176,247.56338,69.30176,249.27171Z" fill="none" stroke="#fff" stroke-linecap="round" stroke-linejoin="round" stroke-width="1.5"/>
      <g>
        <line x1="78.86204" y1="224.08588" x2="78.86204" y2="224.08588" fill="none" stroke="#fff" stroke-linecap="round" stroke-linejoin="round" stroke-width="1.5"/>
        <line x1="67.52903" y1="224.08588" x2="27.86595" y2="224.08588" fill="none" stroke="#fff" stroke-linecap="round" stroke-linejoin="round" stroke-width="1.5" stroke-dasharray="0 11.33228"/>
        <line x1="22.19993" y1="224.08588" x2="22.19993" y2="224.08588" fill="none" stroke="#fff" stroke-linecap="round" stroke-linejoin="round" stroke-width="1.5"/>
      </g>
      <line x1="84.53098" y1="230.10505" x2="16.53098" y2="230.10505" fill="none" stroke="#fff" stroke-linecap="round" stroke-linejoin="round" stroke-width="1.5"/>
      <path d="M32.55781,236.66021c6.69112-11.05423-5.01773-16.32382,0-25.559" fill="none" stroke="#fff" stroke-linecap="round" stroke-linejoin="round" stroke-width="1.5"/>
      <path d="M49.54622,236.66021c6.69112-11.05423-5.01773-16.32382,0-25.559" fill="none" stroke="#fff" stroke-linecap="round" stroke-linejoin="round" stroke-width="1.5"/>
      <path d="M66.53463,236.66021c6.69112-11.05423-5.01773-16.32382,0-25.559" fill="none" stroke="#fff" stroke-linecap="round" stroke-linejoin="round" stroke-width="1.5"/>
      <g>
        <circle cx="50.75" cy="400.79632" r="50" fill="none" stroke="#fff" stroke-linecap="round" stroke-linejoin="round" stroke-width="1.5"/>
        <g>
          <g>
            <path d="M39.23605,401.84967c-9.32979-.01412-15.62409,10.19729-24.95389,10.18318" fill="none" stroke="#fff" stroke-linecap="round" stroke-linejoin="round" stroke-width="1.5"/>
            <path d="M55.23,401.87387c-9.32979-.01412-15.62409,10.19729-24.95389,10.18318" fill="none" stroke="#fff" stroke-linecap="round" stroke-linejoin="round" stroke-width="1.5"/>
            <path d="M71.22391,401.89807C61.89412,401.884,55.59981,412.09536,46.27,412.08125" fill="none" stroke="#fff" stroke-linecap="round" stroke-linejoin="round" stroke-width="1.5"/>
            <path d="M87.21783,401.92226c-9.32979-.01412-15.62409,10.19729-24.95389,10.18318" fill="none" stroke="#fff" stroke-linecap="round" stroke-linejoin="round" stroke-width="1.5"/>
          </g>
          <g>
            <line x1="16.52985" y1="419.6457" x2="16.52985" y2="419.6457" fill="none" stroke="#fff" stroke-linecap="round" stroke-linejoin="round" stroke-width="1.5"/>
            <line x1="27.98004" y1="419.6457" x2="79.51031" y2="419.6457" fill="none" stroke="#fff" stroke-linecap="round" stroke-linejoin="round" stroke-width="1.5" stroke-dasharray="0 11.45109"/>
            <line x1="85.2359" y1="419.6457" x2="85.2359" y2="419.6457" fill="none" stroke="#fff" stroke-linecap="round" stroke-linejoin="round" stroke-width="1.5"/>
          </g>
          <g>
            <polyline points="43.002 392.554 37.699 387.25 43.002 381.947" fill="none" stroke="#fff" stroke-linecap="round" stroke-linejoin="round" stroke-width="1.5"/>
            <polyline points="58.763 381.947 64.066 387.25 58.763 392.554" fill="none" stroke="#fff" stroke-linecap="round" stroke-linejoin="round" stroke-width="1.5"/>
            <line x1="64.0664" y1="387.25025" x2="37.69888" y2="387.25025" fill="none" stroke="#fff" stroke-linecap="round" stroke-linejoin="round" stroke-width="1.5"/>
          </g>
        </g>
      </g>
    </g>
  </g>
</svg>
