<svg xmlns="http://www.w3.org/2000/svg" width="618px" height="249px" xmlns:xlink="http://www.w3.org/1999/xlink" viewBox="0 0 618 249">
  <defs>
    <style>.cls-1,.cls-10,.cls-11,.cls-12,.cls-13,.cls-8,.cls-9{fill:none;}.cls-1{stroke:#f4d3b3;}.cls-1,.cls-10,.cls-8,.cls-9{stroke-miterlimit:10;stroke-width:6px;}.cls-2{fill:#55c3f5;}.cls-3{fill:#ff4d56;}.cls-4{fill:#00263a;}.cls-5{fill:url(#linear-gradient);}.cls-6{fill:url(#linear-gradient-3);}.cls-7{fill:url(#linear-gradient-4);}.cls-8{stroke:url(#New_Gradient_Swatch);}.cls-9{stroke:url(#New_Gradient_Swatch-2);}.cls-10{stroke:url(#New_Gradient_Swatch-3);}.cls-11,.cls-12,.cls-13{stroke-linecap:round;stroke-linejoin:round;stroke-width:4px;}.cls-11{stroke:url(#linear-gradient-5);}.cls-12{stroke:url(#linear-gradient-6);}.cls-13{stroke:url(#linear-gradient-7);}.cls-14{fill:#46cc66;}</style>
    <linearGradient id="linear-gradient" x1="156.89" y1="218.67" x2="156.89" y2="46.94" gradientUnits="userSpaceOnUse">
      <stop offset="0" stop-color="#ff4d56"/>
      <stop offset="1" stop-color="#55c3f5"/>
    </linearGradient>
    <linearGradient id="linear-gradient-3" x1="500.75" y1="234.64" x2="500.75" y2="48.69" gradientTransform="translate(81.06 -324.16) rotate(49.14)" xlink:href="#linear-gradient"/>
    <linearGradient id="linear-gradient-4" x1="320.23" y1="22.84" x2="320.23" y2="180.27" xlink:href="#linear-gradient"/>
    <linearGradient id="New_Gradient_Swatch" y1="146.35" x2="479.67" y2="146.35" gradientUnits="userSpaceOnUse">
      <stop offset="0" stop-color="#879aa5"/>
      <stop offset="0.5" stop-color="#d2dee3"/>
      <stop offset="1" stop-color="#a7b7c1"/>
    </linearGradient>
    <linearGradient id="New_Gradient_Swatch-2" x1="0" y1="159.85" x2="479.67" y2="159.85" xlink:href="#New_Gradient_Swatch"/>
    <linearGradient id="New_Gradient_Swatch-3" x1="0" y1="173.35" x2="479.67" y2="173.35" xlink:href="#New_Gradient_Swatch"/>
    <linearGradient id="linear-gradient-5" x1="48.33" y1="191.53" x2="48.33" y2="108.84" gradientUnits="userSpaceOnUse">
      <stop offset="0.31" stop-color="#ff4d56"/>
      <stop offset="0.31" stop-color="#f6535e"/>
      <stop offset="0.36" stop-color="#d06d82"/>
      <stop offset="0.4" stop-color="#af85a1"/>
      <stop offset="0.45" stop-color="#9398bb"/>
      <stop offset="0.5" stop-color="#7ca8d1"/>
      <stop offset="0.57" stop-color="#6ab4e1"/>
      <stop offset="0.64" stop-color="#5ebdec"/>
      <stop offset="0.75" stop-color="#57c2f3"/>
      <stop offset="1" stop-color="#55c3f5"/>
    </linearGradient>
    <linearGradient id="linear-gradient-6" x1="102.28" y1="191.53" x2="102.28" y2="108.84" xlink:href="#linear-gradient-5"/>
    <linearGradient id="linear-gradient-7" x1="209.61" y1="191.53" x2="209.61" y2="108.84" xlink:href="#linear-gradient-5"/>
  </defs>
  <title>Asset 10</title>
  <g id="Layer_2" data-name="Layer 2">
    <g id="Design">
      <line class="cls-1" y1="189.57" x2="479.67" y2="189.57"/>
      <line class="cls-1" y1="192.25" x2="479.67" y2="192.25"/>
      <line class="cls-1" y1="194.93" x2="479.67" y2="194.93"/>
      <line class="cls-1" y1="197.61" x2="479.67" y2="197.61"/>
      <line class="cls-1" y1="200.3" x2="479.67" y2="200.3"/>
      <line class="cls-1" y1="202.98" x2="479.67" y2="202.98"/>
      <line class="cls-1" y1="205.66" x2="479.67" y2="205.66"/>
      <line class="cls-1" y1="208.35" x2="479.67" y2="208.35"/>
      <line class="cls-1" y1="211.03" x2="479.67" y2="211.03"/>
      <line class="cls-1" y1="213.71" x2="479.67" y2="213.71"/>
      <line class="cls-1" y1="216.39" x2="479.67" y2="216.39"/>
      <line class="cls-1" y1="219.08" x2="479.67" y2="219.08"/>
      <line class="cls-1" y1="221.76" x2="479.67" y2="221.76"/>
      <line class="cls-1" y1="224.44" x2="479.67" y2="224.44"/>
      <line class="cls-1" y1="227.12" x2="479.67" y2="227.12"/>
      <line class="cls-1" y1="229.81" x2="479.67" y2="229.81"/>
      <line class="cls-1" y1="232.49" x2="479.67" y2="232.49"/>
      <line class="cls-1" y1="235.17" x2="479.67" y2="235.17"/>
      <line class="cls-1" y1="237.85" x2="479.67" y2="237.85"/>
      <line class="cls-1" y1="240.54" x2="479.67" y2="240.54"/>
      <line class="cls-1" y1="243.22" x2="479.67" y2="243.22"/>
      <line class="cls-1" y1="245.9" x2="479.67" y2="245.9"/>
      <circle class="cls-2" cx="162.76" cy="128.84" r="13.76"/>
      <circle class="cls-3" cx="78.45" cy="226.44" r="12.5"/>
      <circle class="cls-3" cx="45.5" cy="208.44" r="12.5"/>
      <circle class="cls-2" cx="66.37" cy="79.6" r="12.5"/>
      <circle class="cls-2" cx="100.94" cy="52.17" r="12.5"/>
      <circle class="cls-2" cx="434.95" cy="44.17" r="12.5"/>
      <circle class="cls-2" cx="244.13" cy="116.79" r="12.5"/>
      <circle class="cls-3" cx="209.61" cy="217.44" r="12.5"/>
      <circle class="cls-3" cx="156.89" cy="233.17" r="7.5"/>
      <circle class="cls-3" cx="102.28" cy="203.17" r="7.5"/>
      <circle class="cls-2" cx="100.23" cy="93.01" r="7.5"/>
      <circle class="cls-2" cx="394.78" cy="36.17" r="7.5"/>
      <circle class="cls-2" cx="420.28" cy="86.84" r="7.5"/>
      <path class="cls-4" d="M506.6,208.28a1,1,0,0,1-.21.61.77.77,0,0,1-.65.28.92.92,0,0,1-.66-.23,2.68,2.68,0,0,1-.51-.83,2.56,2.56,0,0,0-.54.49,9.53,9.53,0,0,0-1,1.6,11.42,11.42,0,0,1-1,1.49,4.74,4.74,0,0,1-1,.95v.11a2.16,2.16,0,0,1,1.11.81,4.54,4.54,0,0,1,.63,1.36l.3,1,.27.93a1.77,1.77,0,0,0,.36.74.88.88,0,0,0,.44.21l.41.07.4,0-.13.52h-2.91q-.16-1-.32-1.65t-.36-1.45a3.48,3.48,0,0,0-.84-1.67,2,2,0,0,0-1.41-.47h-.34l-.85,3.72a1.16,1.16,0,0,0,0,.27.63.63,0,0,0,.07.3.57.57,0,0,0,.22.23,1.62,1.62,0,0,0,.43.14,2.88,2.88,0,0,0,.53.08l-.12.52h-4.6l.12-.52.55,0a1.84,1.84,0,0,0,.51-.09.91.91,0,0,0,.42-.3,1.22,1.22,0,0,0,.21-.48l1.87-8.08a.94.94,0,0,0,0-.13,1.24,1.24,0,0,0,0-.14.63.63,0,0,0-.07-.3.56.56,0,0,0-.24-.22,2.27,2.27,0,0,0-.47-.18,2.64,2.64,0,0,0-.5-.09l.12-.52h4.6l-.12.52a3.65,3.65,0,0,0-.55.07l-.5.12a.77.77,0,0,0-.44.32,1.71,1.71,0,0,0-.2.47l-.85,3.73h.73a1.42,1.42,0,0,0,.61-.12,2.86,2.86,0,0,0,.57-.39,3.69,3.69,0,0,0,.76-.86q.33-.5.66-1.11t.71-1.15a5.19,5.19,0,0,1,.9-1,3.3,3.3,0,0,1,.73-.48,2,2,0,0,1,.89-.2,1.49,1.49,0,0,1,.95.28A.92.92,0,0,1,506.6,208.28Z"/>
      <path class="cls-4" d="M513.63,213.61a5.73,5.73,0,0,1-.31,1.85,4.87,4.87,0,0,1-.91,1.62,4.6,4.6,0,0,1-1.45,1.15,4.26,4.26,0,0,1-2,.43,2.8,2.8,0,0,1-2.11-.84,3.1,3.1,0,0,1-.81-2.25,5.41,5.41,0,0,1,1.27-3.52,4.44,4.44,0,0,1,1.45-1.1,4.24,4.24,0,0,1,1.87-.42,2.82,2.82,0,0,1,2.18.85A3.15,3.15,0,0,1,513.63,213.61Zm-1.59-.3a2.88,2.88,0,0,0-.39-1.67,1.31,1.31,0,0,0-1.14-.56,2.11,2.11,0,0,0-1.22.4,3.13,3.13,0,0,0-1,1.3,6,6,0,0,0-.47,1.51,8.83,8.83,0,0,0-.15,1.54,3,3,0,0,0,.39,1.69,1.31,1.31,0,0,0,1.17.58,1.91,1.91,0,0,0,1.23-.44,3.32,3.32,0,0,0,.88-1.11,6.06,6.06,0,0,0,.52-1.51A8.35,8.35,0,0,0,512,213.31Z"/>
      <path class="cls-4" d="M528.61,211.46a.8.8,0,0,1-.22.59.82.82,0,0,1-.61.23,1,1,0,0,1-.65-.25,3.21,3.21,0,0,1-.61-.68A2.83,2.83,0,0,0,525.1,213a7.18,7.18,0,0,0-.48,2.7,6.47,6.47,0,0,0,0,.81,2.66,2.66,0,0,0,.18.69,1.18,1.18,0,0,0,.38.49,1,1,0,0,0,.61.19,1.44,1.44,0,0,0,.61-.13,1.64,1.64,0,0,0,.47-.32,3.56,3.56,0,0,0,.36-.38l.33-.42.39.35a5.19,5.19,0,0,1-1.25,1.28,2.48,2.48,0,0,1-1.42.43,1.77,1.77,0,0,1-1.56-.77,3.64,3.64,0,0,1-.53-2.09,5.6,5.6,0,0,1,0-.59c0-.24.05-.42.08-.55H522l-.85,3.79h-1.42l.87-3.77h-1.28a5.94,5.94,0,0,1-1.63,2.89,3.67,3.67,0,0,1-2.58,1.1,1.14,1.14,0,0,1-.79-.23.88.88,0,0,1,0-1.2.82.82,0,0,1,.61-.23,1,1,0,0,1,.66.25,3.2,3.2,0,0,1,.61.68,2.89,2.89,0,0,0,1.41-1.58,7.12,7.12,0,0,0,.47-2.73,6.72,6.72,0,0,0-.05-.79,2.46,2.46,0,0,0-.17-.71,1.35,1.35,0,0,0-.36-.5,1,1,0,0,0-.62-.18,1.31,1.31,0,0,0-.58.12,2.43,2.43,0,0,0-.5.33,2.94,2.94,0,0,0-.39.42q-.19.25-.31.38l-.39-.35A5.29,5.29,0,0,1,516,211a2.47,2.47,0,0,1,1.41-.43,1.77,1.77,0,0,1,1.57.77,3.67,3.67,0,0,1,.53,2.09c0,.06,0,.15,0,.29s0,.23,0,.28h1.33l.76-3.29,1.32-.09.09.12-.77,3.25h1.34a5.67,5.67,0,0,1,1.65-2.48,3.62,3.62,0,0,1,2.39-.94,1.14,1.14,0,0,1,.79.23A.8.8,0,0,1,528.61,211.46Z"/>
      <path class="cls-4" d="M533.88,217.39h-.05l-.41.36a3.8,3.8,0,0,1-.56.41,4,4,0,0,1-.66.34,2.07,2.07,0,0,1-.78.14,2.14,2.14,0,0,1-1.78-.81,3.49,3.49,0,0,1-.64-2.22,5.1,5.1,0,0,1,.36-1.88,5.59,5.59,0,0,1,1-1.64,4.73,4.73,0,0,1,1.43-1.12,3.69,3.69,0,0,1,1.7-.43,3.74,3.74,0,0,1,1.06.15,3.11,3.11,0,0,1,.79.34l1.43-.37.09.12-1.19,5q-.06.24-.13.59a3.08,3.08,0,0,0-.07.51.76.76,0,0,0,.19.6,1,1,0,0,0,.63.16,2.69,2.69,0,0,0,.42,0,2.57,2.57,0,0,0,.42-.1l-.12.5-1,.41a2.48,2.48,0,0,1-.84.13,1.21,1.21,0,0,1-.89-.33A1.25,1.25,0,0,1,533.88,217.39Zm1.13-4.94a2.19,2.19,0,0,0-.05-.49,1,1,0,0,0-.23-.44,1.09,1.09,0,0,0-.43-.31,1.76,1.76,0,0,0-.69-.12,1.92,1.92,0,0,0-1.11.38,3.84,3.84,0,0,0-1,1,5.27,5.27,0,0,0-.66,1.44,6,6,0,0,0-.2,2.56,2.14,2.14,0,0,0,.21.67,1.08,1.08,0,0,0,.43.46,1.39,1.39,0,0,0,.71.16,2,2,0,0,0,.92-.25,4.43,4.43,0,0,0,1.08-.86Z"/>
      <path class="cls-4" d="M504.06,157.06a2.57,2.57,0,0,1-.71,1.75,3.89,3.89,0,0,1-1,.77,5.7,5.7,0,0,1-1.5.56l0,.1a3.79,3.79,0,0,1,.89.14,3,3,0,0,1,.86.4,2.16,2.16,0,0,1,.65.67,1.84,1.84,0,0,1,.26,1,3.18,3.18,0,0,1-.45,1.65,3.88,3.88,0,0,1-1.17,1.24,5.81,5.81,0,0,1-1.77.8,7.9,7.9,0,0,1-2.06.27,4.49,4.49,0,0,1-2.57-.66,2,2,0,0,1-1-1.66,1.61,1.61,0,0,1,.34-1,1,1,0,0,1,.83-.45.78.78,0,0,1,.64.26.88.88,0,0,1,.21.56,1.51,1.51,0,0,1-.23.78l-.34.55a1.38,1.38,0,0,0,.2.27,1.88,1.88,0,0,0,.44.32,3.57,3.57,0,0,0,.62.28,2.83,2.83,0,0,0,.86.11,3.94,3.94,0,0,0,1.26-.21,3.41,3.41,0,0,0,1.12-.63,3.32,3.32,0,0,0,.81-1,3.21,3.21,0,0,0,.3-1.45,2.35,2.35,0,0,0-.09-.65,1.36,1.36,0,0,0-.32-.56,1.57,1.57,0,0,0-.63-.39,2.94,2.94,0,0,0-1-.14H498.4l.19-.8h.83a2.6,2.6,0,0,0,2-.82,3.06,3.06,0,0,0,.74-2.14,1.36,1.36,0,0,0-.44-1.11,1.74,1.74,0,0,0-1.14-.36,2.58,2.58,0,0,0-1.28.33,4.66,4.66,0,0,0-1.07.83,5.94,5.94,0,0,0-.82,1.08,11.72,11.72,0,0,0-.57,1.06h-.64l.84-3.7h.63l.23.53a8.28,8.28,0,0,1,1.33-.54,5.37,5.37,0,0,1,1.63-.23,4.86,4.86,0,0,1,1.62.23,2.68,2.68,0,0,1,1,.57,1.77,1.77,0,0,1,.47.71A2.28,2.28,0,0,1,504.06,157.06Z"/>
      <path class="cls-4" d="M509.62,165.11h-.05l-.41.36a3.8,3.8,0,0,1-.56.41,4,4,0,0,1-.66.34,2.07,2.07,0,0,1-.78.14,2.14,2.14,0,0,1-1.78-.81,3.49,3.49,0,0,1-.64-2.22,5.1,5.1,0,0,1,.36-1.88,5.59,5.59,0,0,1,1-1.64,4.73,4.73,0,0,1,1.43-1.12,3.69,3.69,0,0,1,1.7-.43,3.74,3.74,0,0,1,1.06.15,3.11,3.11,0,0,1,.79.34l1.43-.37.09.12-1.19,5q-.06.24-.13.59a3.08,3.08,0,0,0-.07.51.76.76,0,0,0,.19.6,1,1,0,0,0,.63.16,2.69,2.69,0,0,0,.42,0,2.57,2.57,0,0,0,.42-.1l-.12.5-1,.41a2.48,2.48,0,0,1-.84.13,1.21,1.21,0,0,1-.89-.33A1.25,1.25,0,0,1,509.62,165.11Zm1.13-4.94a2.19,2.19,0,0,0-.05-.49,1,1,0,0,0-.23-.44,1.09,1.09,0,0,0-.43-.31,1.76,1.76,0,0,0-.69-.12,1.92,1.92,0,0,0-1.11.38,3.84,3.84,0,0,0-1,1,5.27,5.27,0,0,0-.66,1.44,6,6,0,0,0-.2,2.56,2.14,2.14,0,0,0,.21.67,1.08,1.08,0,0,0,.43.46,1.39,1.39,0,0,0,.71.16,2,2,0,0,0,.92-.25,4.43,4.43,0,0,0,1.08-.86Z"/>
      <path class="cls-4" d="M518.93,164.92h0q-.3.26-.69.56a5.29,5.29,0,0,1-.68.46,4,4,0,0,1-.71.3,3,3,0,0,1-.8.09,1.51,1.51,0,0,1-1.16-.43,1.6,1.6,0,0,1-.41-1.14,3.85,3.85,0,0,1,0-.45q0-.26.15-.77l.61-2.48q.08-.34.13-.61a2.68,2.68,0,0,0,.05-.51.83.83,0,0,0-.15-.58.87.87,0,0,0-.59-.14,1.88,1.88,0,0,0-.44.07l-.41.11.12-.5a9.13,9.13,0,0,1,1.07-.42,2.7,2.7,0,0,1,.75-.14,1.24,1.24,0,0,1,.91.29,1.13,1.13,0,0,1,.29.83,3,3,0,0,1,0,.38,3.85,3.85,0,0,1-.09.48l-.69,2.89c-.05.22-.09.42-.13.61a2.66,2.66,0,0,0-.05.43,1.36,1.36,0,0,0,.23.83.84.84,0,0,0,.72.3,2.16,2.16,0,0,0,.87-.21,4.24,4.24,0,0,0,1.13-.84l1.36-5.88,1.36-.09.09.12-1.09,4.73q-.06.25-.12.59a3.48,3.48,0,0,0-.05.48,1.31,1.31,0,0,0,.23.82.86.86,0,0,0,.72.3,2.2,2.2,0,0,0,.91-.25,4.71,4.71,0,0,0,1.18-.88l1.34-5.8,1.36-.09.09.12-1.16,5c-.05.21-.1.43-.14.64a2.78,2.78,0,0,0-.06.46.76.76,0,0,0,.19.61,1,1,0,0,0,.64.16,2.69,2.69,0,0,0,.42,0,2.54,2.54,0,0,0,.42-.1l-.12.5a.79.79,0,0,0-.32.2,1.26,1.26,0,0,0-.21.3,1.45,1.45,0,0,0-.12.39c0,.14,0,.26-.05.36l-.09,1.06a1.44,1.44,0,0,1-.64,1.15,3.19,3.19,0,0,1-1.56.41l-.15-.5a2.35,2.35,0,0,0,.84-.24.77.77,0,0,0,.27-.53l.14-.78a1.42,1.42,0,0,1,.14-.41,2.84,2.84,0,0,1,.24-.38,3,3,0,0,1,.27-.32c.09-.09.18-.19.28-.31l0-.05-.44.12a1.93,1.93,0,0,1-.46.07,1.18,1.18,0,0,1-.95-.36,1.36,1.36,0,0,1-.31-.92h0l-.65.54a3.82,3.82,0,0,1-.65.42,3.14,3.14,0,0,1-.73.29,3.07,3.07,0,0,1-.75.09,1.6,1.6,0,0,1-1.13-.38A1.52,1.52,0,0,1,518.93,164.92Z"/>
      <path class="cls-4" d="M532.59,165h0l-.69.53a4.79,4.79,0,0,1-.65.41,3.7,3.7,0,0,1-.68.27,3.16,3.16,0,0,1-.8.08,1.53,1.53,0,0,1-1.16-.43,1.58,1.58,0,0,1-.41-1.14,3.85,3.85,0,0,1,0-.45q0-.26.15-.77l.61-2.48q.08-.34.13-.61a2.68,2.68,0,0,0,.05-.51.58.58,0,0,0-.73-.73,1.88,1.88,0,0,0-.44.07l-.41.11.12-.5a9.2,9.2,0,0,1,1.07-.42,2.7,2.7,0,0,1,.75-.14,1.25,1.25,0,0,1,.92.29,1.13,1.13,0,0,1,.29.83,3.23,3.23,0,0,1,0,.38,4.23,4.23,0,0,1-.09.48l-.69,2.89q-.08.33-.13.61a2.78,2.78,0,0,0-.05.43,1.36,1.36,0,0,0,.23.83.84.84,0,0,0,.72.3,2.29,2.29,0,0,0,1-.26,4.12,4.12,0,0,0,1.06-.79l1.36-5.88,1.36-.09.09.12-1.16,5c-.05.21-.1.43-.14.64a2.78,2.78,0,0,0-.06.46.76.76,0,0,0,.19.61,1,1,0,0,0,.64.16,2.69,2.69,0,0,0,.42,0,2.54,2.54,0,0,0,.42-.1l-.12.5q-.65.27-1.08.4a2.74,2.74,0,0,1-.8.13,1.16,1.16,0,0,1-.94-.37A1.29,1.29,0,0,1,532.59,165Z"/>
      <path class="cls-4" d="M549.88,165.26l-.12.5a10.41,10.41,0,0,1-1.15.4,3,3,0,0,1-.74.11,1.25,1.25,0,0,1-.94-.32,1.11,1.11,0,0,1-.31-.8,2.61,2.61,0,0,1,0-.38c0-.14.05-.3.1-.49l.77-2.92q.09-.34.14-.61a2.5,2.5,0,0,0,.05-.44,1.37,1.37,0,0,0-.23-.83.83.83,0,0,0-.71-.3,2.29,2.29,0,0,0-1,.25,4.24,4.24,0,0,0-1.13.92l-1.37,5.79h-1.45l1.23-5.22c0-.12.05-.24.07-.36a1.76,1.76,0,0,0,0-.29,1.18,1.18,0,0,0-.25-.8.93.93,0,0,0-.74-.29,2.57,2.57,0,0,0-1,.22,3.9,3.9,0,0,0-1.24,1l-1.33,5.74h-1.46l1.17-5.07c0-.18.08-.38.12-.59a3,3,0,0,0,.06-.53.59.59,0,0,0-.73-.74,2,2,0,0,0-.44.07l-.42.11.12-.5a8.06,8.06,0,0,1,1.08-.41,3.05,3.05,0,0,1,.81-.13,1.06,1.06,0,0,1,.89.34,1.56,1.56,0,0,1,.28.93h0a10.72,10.72,0,0,1,1.51-1,3,3,0,0,1,1.41-.31,1.6,1.6,0,0,1,1.13.4,1.52,1.52,0,0,1,.49,1h0a9.8,9.8,0,0,1,1.48-1.06,3.08,3.08,0,0,1,1.51-.36,1.49,1.49,0,0,1,1.15.43,1.62,1.62,0,0,1,.4,1.14c0,.09,0,.26,0,.5a5.06,5.06,0,0,1-.14.71l-.66,2.51c0,.17-.09.36-.13.58a2.82,2.82,0,0,0-.06.5.78.78,0,0,0,.19.61,1,1,0,0,0,.63.16l.43,0A2.23,2.23,0,0,0,549.88,165.26Z"/>
      <path class="cls-4" d="M553.67,161.74h3.13l.77-3.27,1.36-.09.09.12-1.17,5q-.06.23-.13.59a3,3,0,0,0-.07.51.75.75,0,0,0,.2.61,1,1,0,0,0,.64.16,2.54,2.54,0,0,0,.43-.05,2.83,2.83,0,0,0,.43-.11l-.12.5q-.7.28-1.09.41a2.51,2.51,0,0,1-.79.13,1.25,1.25,0,0,1-.94-.32,1.11,1.11,0,0,1-.31-.8,2.28,2.28,0,0,1,0-.38q0-.21.1-.51l.44-1.89h-3.13l-.87,3.77H551.2l1.17-5.06q.06-.25.12-.57a2.93,2.93,0,0,0,.06-.54.84.84,0,0,0-.14-.58.86.86,0,0,0-.59-.14,1.9,1.9,0,0,0-.44.07l-.42.11.12-.5a9.24,9.24,0,0,1,1.08-.42,2.71,2.71,0,0,1,.75-.14,1.26,1.26,0,0,1,.92.29,1.12,1.12,0,0,1,.29.83,3.5,3.5,0,0,1,0,.38c0,.17-.05.36-.1.56Z"/>
      <path class="cls-4" d="M567,163.39a2.61,2.61,0,0,1-1.07,2.15,4.52,4.52,0,0,1-2.86.83,2.76,2.76,0,0,1-1.7-.45,1.47,1.47,0,0,1-.59-1.24,4.16,4.16,0,0,1,0-.42,5.68,5.68,0,0,1,.15-.72l.68-2.52c.05-.21.1-.42.15-.64a2.57,2.57,0,0,0,.07-.51.74.74,0,0,0-.16-.55.93.93,0,0,0-.6-.14,2.59,2.59,0,0,0-.46.05l-.43.09.12-.5a8,8,0,0,1,1.1-.41,3.08,3.08,0,0,1,.77-.13,1,1,0,0,1,1.18,1.12,2.72,2.72,0,0,1,0,.39,4,4,0,0,1-.11.48l-.39,1.34.64-.09a5.8,5.8,0,0,1,.72-.05,3.71,3.71,0,0,1,2.06.48A1.6,1.6,0,0,1,567,163.39Zm-1.61.07a1.41,1.41,0,0,0-.38-1.07,1.43,1.43,0,0,0-1-.37,3.63,3.63,0,0,0-.72.07l-.53.11-.32,1.23a5.71,5.71,0,0,0-.13.63,4.12,4.12,0,0,0-.06.61,1.07,1.07,0,0,0,.33.88,1.21,1.21,0,0,0,.79.27A1.84,1.84,0,0,0,565,165a2.63,2.63,0,0,0,.32-.74A3.05,3.05,0,0,0,565.43,163.46Zm5.7,1.77-.12.5q-.7.28-1.09.41a2.47,2.47,0,0,1-.79.13,1.22,1.22,0,0,1-.93-.32,1.12,1.12,0,0,1-.3-.8,2.4,2.4,0,0,1,0-.37c0-.12.05-.29.1-.52l1.27-5.79,1.38-.09.09.13-1.14,5q-.05.23-.12.6a3.16,3.16,0,0,0-.07.5.75.75,0,0,0,.2.61,1,1,0,0,0,.64.16,2.52,2.52,0,0,0,.43-.05A2.79,2.79,0,0,0,571.13,165.24Z"/>
      <path class="cls-4" d="M577.07,165h0l-.69.53a4.79,4.79,0,0,1-.65.41,3.7,3.7,0,0,1-.68.27,3.16,3.16,0,0,1-.8.08,1.53,1.53,0,0,1-1.16-.43,1.58,1.58,0,0,1-.41-1.14,3.85,3.85,0,0,1,0-.45q0-.26.15-.77l.61-2.48q.08-.34.13-.61a2.68,2.68,0,0,0,.05-.51.58.58,0,0,0-.73-.73,1.88,1.88,0,0,0-.44.07l-.41.11.12-.5a9.2,9.2,0,0,1,1.07-.42,2.7,2.7,0,0,1,.75-.14,1.25,1.25,0,0,1,.92.29,1.13,1.13,0,0,1,.29.83,3.23,3.23,0,0,1,0,.38,4.23,4.23,0,0,1-.09.48l-.69,2.89q-.08.33-.13.61a2.78,2.78,0,0,0-.05.43,1.36,1.36,0,0,0,.23.83.84.84,0,0,0,.72.3,2.29,2.29,0,0,0,1-.26,4.12,4.12,0,0,0,1.06-.79l1.36-5.88,1.36-.09.09.12-1.16,5c-.05.21-.1.43-.14.64a2.78,2.78,0,0,0-.06.46.76.76,0,0,0,.19.61,1,1,0,0,0,.64.16,2.69,2.69,0,0,0,.42,0,2.54,2.54,0,0,0,.42-.1l-.12.5q-.65.27-1.08.4a2.74,2.74,0,0,1-.8.13,1.16,1.16,0,0,1-.94-.37A1.29,1.29,0,0,1,577.07,165Zm1.21-9.35a3.49,3.49,0,0,0,.5-.73,5.67,5.67,0,0,0,.36-.84l.49.27a4.54,4.54,0,0,1-.42,1,3.45,3.45,0,0,1-.68.88,3.37,3.37,0,0,1-.92.61,3,3,0,0,1-1.19.21,2.15,2.15,0,0,1-1.39-.39,1.23,1.23,0,0,1-.48-1,1,1,0,0,1,.28-.75.91.91,0,0,1,.66-.27.65.65,0,0,1,.45.16.59.59,0,0,1,.18.47,1.26,1.26,0,0,1-.1.5q-.1.24-.19.4a1.17,1.17,0,0,0,.37.14,2.28,2.28,0,0,0,.41,0,2.21,2.21,0,0,0,.93-.19A2.24,2.24,0,0,0,578.28,155.7Z"/>
      <path class="cls-4" d="M588.08,166.36a2.91,2.91,0,0,1-2.16-.8,3.08,3.08,0,0,1-.79-2.27,5.85,5.85,0,0,1,.3-1.87,5.36,5.36,0,0,1,.84-1.59,4.21,4.21,0,0,1,1.36-1.14,3.82,3.82,0,0,1,1.83-.44,2.64,2.64,0,0,1,1.7.47,1.47,1.47,0,0,1,.58,1.19,1.75,1.75,0,0,1-.25.95.84.84,0,0,1-.76.41.86.86,0,0,1-.63-.21.65.65,0,0,1-.21-.47,2,2,0,0,1,.17-.68l.27-.7a.57.57,0,0,0-.38-.31,2,2,0,0,0-.62-.1,2.19,2.19,0,0,0-1.83,1.24,5.65,5.65,0,0,0-.77,3,2.84,2.84,0,0,0,.5,1.76,1.6,1.6,0,0,0,1.34.65,2.33,2.33,0,0,0,1.35-.41,4.76,4.76,0,0,0,1.13-1.15l.45.33a5,5,0,0,1-1.46,1.47A3.43,3.43,0,0,1,588.08,166.36Z"/>
      <path class="cls-4" d="M600.31,165.74q-.7.28-1.09.41a2.44,2.44,0,0,1-.78.13,1.23,1.23,0,0,1-.93-.32,1.12,1.12,0,0,1-.31-.8,2.48,2.48,0,0,1,0-.38q0-.21.1-.49l.79-3.05q.19-.75.28-1.19a3.52,3.52,0,0,0,.09-.7c0-.09-.09-.19-.26-.29a1.11,1.11,0,0,0-.59-.16,1.5,1.5,0,0,0-1.22.76,10.87,10.87,0,0,0-1.14,2.55q-.24.7-.55,1.46a8.64,8.64,0,0,1-.66,1.31,4.13,4.13,0,0,1-.81,1,1.45,1.45,0,0,1-1,.35.77.77,0,0,1-.61-.25.88.88,0,0,1-.21-.6,1,1,0,0,1,.23-.6.75.75,0,0,1,.63-.3,1.19,1.19,0,0,1,.44.09,4.34,4.34,0,0,1,.48.23,4.2,4.2,0,0,0,.73-1.29q.38-.94.55-1.47t.49-1.35a6.11,6.11,0,0,1,.65-1.25,3.08,3.08,0,0,1,1-.92,2.88,2.88,0,0,1,1.46-.34,2.72,2.72,0,0,1,1.34.28.81.81,0,0,1,.49.68,4,4,0,0,1-.09.68q-.09.46-.2.85l-.74,2.8q-.07.25-.14.58a2.55,2.55,0,0,0-.07.5.75.75,0,0,0,.2.61,1,1,0,0,0,.64.16,2.53,2.53,0,0,0,.43-.05,2.82,2.82,0,0,0,.43-.11Z"/>
      <path class="cls-4" d="M609,161.33a5.73,5.73,0,0,1-.31,1.85,4.87,4.87,0,0,1-.91,1.62,4.6,4.6,0,0,1-1.45,1.15,4.26,4.26,0,0,1-2,.43,2.8,2.8,0,0,1-2.11-.84,3.1,3.1,0,0,1-.81-2.25,5.41,5.41,0,0,1,1.27-3.52,4.44,4.44,0,0,1,1.45-1.1,4.24,4.24,0,0,1,1.87-.42,2.82,2.82,0,0,1,2.18.85A3.15,3.15,0,0,1,609,161.33Zm-1.59-.3a2.88,2.88,0,0,0-.39-1.67,1.31,1.31,0,0,0-1.14-.56,2.11,2.11,0,0,0-1.22.4,3.13,3.13,0,0,0-1,1.3,6,6,0,0,0-.47,1.51,8.83,8.83,0,0,0-.15,1.54,3,3,0,0,0,.39,1.69,1.31,1.31,0,0,0,1.17.58,1.91,1.91,0,0,0,1.23-.44,3.32,3.32,0,0,0,.88-1.11,6.06,6.06,0,0,0,.52-1.51A8.35,8.35,0,0,0,607.38,161Z"/>
      <path class="cls-4" d="M615,165h0l-.69.53a4.79,4.79,0,0,1-.65.41,3.7,3.7,0,0,1-.68.27,3.16,3.16,0,0,1-.8.08,1.53,1.53,0,0,1-1.16-.43,1.58,1.58,0,0,1-.41-1.14,3.85,3.85,0,0,1,0-.45q0-.26.15-.77l.61-2.48q.08-.34.13-.61a2.68,2.68,0,0,0,.05-.51.58.58,0,0,0-.73-.73,1.88,1.88,0,0,0-.44.07l-.41.11.12-.5a9.2,9.2,0,0,1,1.07-.42,2.7,2.7,0,0,1,.75-.14,1.25,1.25,0,0,1,.92.29,1.13,1.13,0,0,1,.29.83,3.23,3.23,0,0,1,0,.38,4.23,4.23,0,0,1-.09.48l-.69,2.89q-.08.33-.13.61a2.78,2.78,0,0,0-.05.43,1.36,1.36,0,0,0,.23.83.84.84,0,0,0,.72.3,2.29,2.29,0,0,0,1-.26,4.12,4.12,0,0,0,1.06-.79l1.36-5.88,1.36-.09.09.12-1.16,5c-.05.21-.1.43-.14.64a2.78,2.78,0,0,0-.06.46.76.76,0,0,0,.19.61,1,1,0,0,0,.64.16,2.69,2.69,0,0,0,.42,0,2.54,2.54,0,0,0,.42-.1l-.12.5q-.65.27-1.08.4a2.74,2.74,0,0,1-.8.13,1.16,1.16,0,0,1-.94-.37A1.29,1.29,0,0,1,615,165Zm1.21-9.35a3.49,3.49,0,0,0,.5-.73,5.67,5.67,0,0,0,.36-.84l.49.27a4.54,4.54,0,0,1-.42,1,3.45,3.45,0,0,1-.68.88,3.37,3.37,0,0,1-.92.61,3,3,0,0,1-1.19.21,2.15,2.15,0,0,1-1.39-.39,1.23,1.23,0,0,1-.48-1,1,1,0,0,1,.28-.75.91.91,0,0,1,.66-.27.65.65,0,0,1,.45.16.59.59,0,0,1,.18.47,1.26,1.26,0,0,1-.1.5q-.1.24-.19.4a1.17,1.17,0,0,0,.37.14,2.28,2.28,0,0,0,.41,0,2.21,2.21,0,0,0,.93-.19A2.24,2.24,0,0,0,616.23,155.7Z"/>
      <polygon class="cls-5" points="129.22 143.43 184.56 143.43 184.56 85.86 196.02 85.86 156.89 46.73 117.77 85.86 129.22 85.86 129.22 143.43"/>
      <rect class="cls-5" x="129.22" y="176.2" width="55.33" height="41.48"/>
      <polygon class="cls-6" points="311.57 101.79 347.77 143.63 397.45 100.84 404.95 109.51 408.94 54.32 353.75 50.33 361.25 58.99 311.57 101.79"/>
      <rect class="cls-7" x="292.56" y="30.33" width="55.33" height="113.31"/>
      <line class="cls-8" y1="146.35" x2="479.67" y2="146.35"/>
      <line class="cls-9" y1="159.85" x2="479.67" y2="159.85"/>
      <line class="cls-10" y1="173.35" x2="479.67" y2="173.35"/>
      <path class="cls-11" d="M53.07,110.84c0,13.11-9.47,13.11-9.47,26.22s9.47,13.12,9.47,26.23-9.47,13.12-9.47,26.23"/>
      <path class="cls-12" d="M107,110.84c0,13.11-9.47,13.11-9.47,26.22S107,150.17,107,163.29s-9.47,13.12-9.47,26.23"/>
      <path class="cls-13" d="M214.34,110.84c0,13.11-9.47,13.11-9.47,26.22s9.47,13.12,9.47,26.23-9.47,13.12-9.47,26.23"/>
      <path class="cls-2" d="M173.66,176.18a16.75,16.75,0,0,0-33.5,0h22.78"/>
      <path class="cls-3" d="M140.16,176.18a16.75,16.75,0,0,0,33.5,0H150.88"/>
      <path class="cls-14" d="M53.7,32.68a3,3,0,0,0,3.81-1.88c.67-2,4.07-4.08,5.61-4.8a3,3,0,0,0-2.51-5.45c-.72.33-7.11,3.39-8.78,8.32A3,3,0,0,0,53.7,32.68Z"/>
      <path class="cls-14" d="M220.59,39.78a3,3,0,0,0-3.79,1.91c-1.71,5.18-7.5,7.39-7.61,7.43a3,3,0,0,0,2,5.64c.35-.13,8.63-3.17,11.27-11.2A3,3,0,0,0,220.59,39.78Z"/>
      <path class="cls-14" d="M3.37,85.23c.06,0,6.37-.73,9.78,4.55a3,3,0,1,0,5-3.26C12.76,78.12,3,79.23,2.63,79.28a3,3,0,1,0,.74,6Z"/>
      <path class="cls-14" d="M159.15,28.35a3,3,0,0,0,3.3-5c-.06,0-6.17-4.23-6-9.83a3,3,0,0,0-6-.16C150.19,22.34,158.78,28.11,159.15,28.35Z"/>
      <path class="cls-14" d="M246.63,60.57a3,3,0,0,0,.86,4.15,18,18,0,0,0,9.28,2.46,19.46,19.46,0,0,0,4.67-.57A3,3,0,0,0,260,60.78a12.6,12.6,0,0,1-9.24-1.09A3,3,0,0,0,246.63,60.57Z"/>
      <path class="cls-14" d="M465.8,77.23a27.94,27.94,0,0,0,2.91.12,56.38,56.38,0,0,0,8.4-.68,3,3,0,0,0-.9-5.93,42.19,42.19,0,0,1-9.74.52,3,3,0,0,0-.67,6Z"/>
      <path class="cls-14" d="M316.66,9a3,3,0,0,0,4.86,3.52c0-.06,4.34-5.85,9.6-6.53a3,3,0,0,0-.76-6C322.49,1,316.9,8.65,316.66,9Z"/>
    </g>
  </g>
</svg>